…
excel.file <- "Data/Abelin_Immunity_data.xlsx"

tibble(data = map(alleles, ~read_excel(excel.file, sheet = . )), allele = alleles) %>% 
  mutate(data = map(data, ~select(., sequence, entry_name))) %>% 
  unnest(data) %>% 
  rename(UCSC.id = entry_name) %>% 
  mutate(UCSC.id = str_remove(UCSC.id, "\\..+"),
         sequence = toupper(sequence)) -> broad.HLA.data
  
broad.HLA.data
```

    ## # A tibble: 23,492 × 3
    ##    sequence     UCSC.id  allele
    ##    <chr>        <chr>    <chr> 
    ##  1 KLYDIDVAKV   uc002hci A0203 
    ##  2 VLKDLVKVI    uc003ymt A0203 
    ##  3 VLYPHEPTAVF  uc002ysi A0203 
    ##  4 KMYEEFLSKV   uc002jhg A0203 
    ##  5 GLADLERAQAMI uc002amp A0203 
    ##  6 ILMEHIHKL    uc002hrq A0203 
    ##  7 ILMEHIHKL    uc002hrq A0203 
    ##  8 RVLDFDPMAV   uc002anr A0203 
    ##  9 ALFPHLLQPVLW uc002xty A0203 
    ## 10 KMYEEFLSKV   uc002jhg A0203 
    ## # ℹ 23,482 more rows
…
Add swissprot IDs and only retain peptides in master sheet

``` r
broad.HLA.data %>% 
  inner_join(conversion.table) %>% 
  semi_join(master.sheets, by = c("allele", "sequence")) %>% 
  distinct(sequence, allele, .keep_all = T) -> broad.HLA.data

broad.HLA.data
```

    ## # A tibble: 13,783 × 4
    ##    sequence         UCSC.id  allele swissprot.id
    ##    <chr>            <chr>    <chr>  <chr>       
    ##  1 KLYDIDVAKV       uc002hci A0203  P62750      
    ##  2 KMYEEFLSKV       uc002jhg A0203  P10644      
    ##  3 GLADLERAQAMI     uc002amp A0203  Q15751      
    ##  4 ILMEHIHKL        uc002hrq A0203  P84098      
    ##  5 ALFPHLLQPVLW     uc002xty A0203  P55060      
    ##  6 KVKDILSKV        uc001zkb A0203  Q52LJ0      
    ##  7 FTFPNRLLTT       uc001bza A0203  Q9UBB6      
    ##  8 SLKEMVSKL        uc001arc A0203  P52209      
    ##  9 SVISHLLRV        uc003eib A0203  O95219      
    ## 10 AFGGSGGRGSSSGGGY uc001sat A0203  P35908      
    ## # ℹ 13,773 more rows
…
broad.HLA.data %>% 
  filter(nchar(sequence) %in% 9:11) %>%  
  filter(swissprot.id %in% IDs.in.library) %>% 
  group_by(allele) %>% 
  slice_sample(n = 500) %>% 
  mutate(ligand = TRUE) %>% 
  ungroup() -> filtered.peptides

filtered.peptides
```

    ## # A tibble: 6,971 × 5
    ##    sequence   UCSC.id  allele swissprot.id ligand
    ##    <chr>      <chr>    <chr>  <chr>        <lgl> 
    ##  1 FLHARLRTA  uc002htn A0203  O43242       TRUE  
    ##  2 YLGIVELLV  uc001wtf A0203  P25963       TRUE  
    ##  3 LLAEKVEQL  uc003wwt A0203  Q13454       TRUE  
    ##  4 YLTEVFLHV  uc003hvx A0203  Q8NDB2       TRUE  
    ##  5 RLAALGRQV  uc002mhi A0203  Q8IUR0       TRUE  
    ##  6 ALAEIAKAEL uc001bys A0203  P23246       TRUE  
    ##  7 LLAELPASV  uc002hdc A0203  Q14254       TRUE  
    ##  8 ILAQQPLSV  uc002azp A0203  Q6ZRI6       TRUE  
    ##  9 YIYDKDMEII uc002gym A0203  Q9UPT9       TRUE  
    ## 10 FMASQMLKV  uc002mgx A0203  Q9HCS7       TRUE  
    ## # ℹ 6,961 more rows
…
