…
Tidy up, and add peptide lengths.

``` r
MS.data %>% 
  mutate(pep.length = str_length(sequence))  -> MS.data

MS.data
```

    ## # A tibble: 146,245 × 4
    ##    sequence  swissprot.id tumor  pep.length
    ##    <chr>     <chr>        <chr>       <int>
    ##  1 IVGAYICIF Q8IVW8       M026X1          9
    ##  2 YTVCRDLKE O43913       M026X1          9
    ##  3 MEEPGATPQ A4FU28       M026X1          9
    ##  4 RLASARTLY Q9H0A0       M026X1          9
    ##  5 ISIEAMDFV Q8WZ42       M026X1          9
    ##  6 CEAVNPTRF Q9UK80       M026X1          9
    ##  7 PGKKGQAGP P39059       M026X1          9
    ##  8 CSVEVRQED Q8NHY3       M026X1          9
    ##  9 LIDKNLESK Q9HCM2       M026X1          9
    ## 10 SFLFLEPME Q9UGM5       M026X1          9
    ## # ℹ 146,235 more rows
…
