…
``` r
HLA.ligands <- mutate(HLA.ligands, tumor = c("M026X1", "SKMEL95", "NKIRTIL006"))

# Define Columns to keep from the ligand tables
keep <- c("rna","ribo",  "swissprot_id", "ligand", "peptide" )

HLA.ligands %>% 
  unnest( cols = ligand.table) %>% 
  select(one_of(keep, "tumor")) %>% 
  distinct() -> HLA.ligands

HLA.ligands
```

    ## # A tibble: 16,619 × 6
    ##      rna   ribo swissprot_id ligand peptide   tumor 
    ##    <dbl>  <dbl> <chr>        <lgl>  <chr>     <chr> 
    ##  1  29.5  2556. Q02952       TRUE   AAAEEEKVL M026X1
    ##  2 468.    962. O00567       TRUE   AAAEITRKL M026X1
    ##  3  11.8  1044. Q9P2E5       TRUE   AAAELERRY M026X1
    ##  4 134.    840. Q13425       TRUE   AAAELIKEV M026X1
    ##  5  28.6   562. Q9C0D5       TRUE   AAAGHMKLV M026X1
    ##  6  44.5   575. P54802       TRUE   AAAGLHRYL M026X1
    ##  7  15.1   202  Q9NRK6       TRUE   AAANAIRVY M026X1
    ##  8 583.  17890. P24821       TRUE   AAAPDVKEL M026X1
    ##  9  13.1    82  Q8IW45       TRUE   AAAPVIKAY M026X1
    ## 10  25.9   136. Q68EM7       TRUE   AAATSVHVV M026X1
    ## # ℹ 16,609 more rows
…
``` r
file.names <- list.files("Data/protein_data/") 

expression.data <- tibble(
  
  expression.info = map( paste0("Data/protein_data/", file.names), read_tsv ),
  tumor = map_chr(str_split(file.names, "_"), 1)

  )

(expression.data <- unnest(expression.data, cols = expression.info) %>% select(!length))
```

    ## # A tibble: 47,958 × 4
    ##    swissprot_id     rna   ribo tumor 
    ##    <chr>          <dbl>  <dbl> <chr> 
    ##  1 Q8IW70        0.0377   0    M026X1
    ##  2 Q8NAP8        0.0614   2.28 M026X1
    ##  3 Q8IV76        7.78    84    M026X1
    ##  4 O94876       21.8     19    M026X1
    ##  5 Q6P1R3        1.59    13.0  M026X1
    ##  6 Q15714       19.6    357.   M026X1
    ##  7 Q13207        8.92   544.   M026X1
    ##  8 Q9H4H8       29.0    133    M026X1
    ##  9 P31277        0.0632   0    M026X1
    ## 10 Q96KQ7       21.1    305.   M026X1
    ## # ℹ 47,948 more rows
…
