…
write_tsv(to.plot, "Output/Fig_S2a.tsv")

to.plot <- read_tsv( "Output/Fig_S2a.tsv")

to.plot
```

    ## # A tibble: 60 × 6
    ##     mtry tumor      classes metric value     SD
    ##    <dbl> <chr>      <chr>   <chr>  <dbl>  <dbl>
    ##  1    66 SKMEL95    CDS     ROC    0.701 0.0277
    ##  2    66 SKMEL95    CDS     Sens   0.686 0.0569
    ##  3    66 SKMEL95    CDS     Spec   0.638 0.0281
    ##  4    66 SKMEL95    CDS     Prec   0.487 0.0251
    ##  5    66 M026X1     CDS     ROC    0.687 0.0297
    ##  6    66 M026X1     CDS     Sens   0.666 0.0537
    ##  7    66 M026X1     CDS     Spec   0.634 0.0394
    ##  8    66 M026X1     CDS     Prec   0.477 0.0252
    ##  9    66 NKIRTIL006 CDS     ROC    0.723 0.0245
    ## 10    66 NKIRTIL006 CDS     Sens   0.672 0.0289
    ## # ℹ 50 more rows
…
    ##           used  (Mb) gc trigger   (Mb) limit (Mb)   max used   (Mb)
    ## Ncells 2659328 142.1    4772078  254.9         NA    4772078  254.9
    ## Vcells 4625529  35.3 1085202077 8279.5      40960 1025127494 7821.2

``` r
write_tsv(importance.table, "Output/rf_importance.tsv")

importance.table <- read_tsv( "Output/rf_importance.tsv")

importance.table
```

    ## # A tibble: 17,346 × 4
    ##    tumor   classes feature         importance
    ##    <chr>   <chr>   <chr>                <dbl>
    ##  1 SKMEL95 CDS     CDS_length_CDS       16.2 
    ##  2 SKMEL95 CDS     AAAA_CDS             15.2 
    ##  3 SKMEL95 CDS     AAAAA_CDS            11.7 
    ##  4 SKMEL95 CDS     AAAAAA_CDS           12.7 
    ##  5 SKMEL95 CDS     AAAAAAA_CDS           8.98
    ##  6 SKMEL95 CDS     AAAAAAAA_CDS          8.75
    ##  7 SKMEL95 CDS     AAAAAAAAA_CDS         7.09
    ##  8 SKMEL95 CDS     AAAAAAC_CDS           8.43
    ##  9 SKMEL95 CDS     AAAAAACAAAG_CDS       4.74
    ## 10 SKMEL95 CDS     AAAAAAG_CDS          11.2 
    ## # ℹ 17,336 more rows
…
