…
train.peptides %>% 
  group_by(tumor, ligand) %>% 
  nest() %>% 
  ungroup() %>% 
  mutate(sample.size =  rep(c(13556, 3389), 3)) %>% 
  mutate(data = map2(data, sample.size, sample_n)) %>% 
  select(-sample.size) %>% 
  unnest(data) -> train.peptides

train.peptides
```

    ## # A tibble: 50,835 × 8
    ##    ligand tumor  Peptide     swissprot_id     rna    ribo allele      rank
    ##    <lgl>  <chr>  <chr>       <chr>          <dbl>   <dbl> <chr>      <dbl>
    ##  1 FALSE  M026X1 QVKGDKVESY  Q5VVY1         0.111    0    HLA-A0101  1.02 
    ##  2 FALSE  M026X1 RWHPYTNTA   Q96G21       109.     172.   HLA-C0701  3.01 
    ##  3 FALSE  M026X1 YNHNNINQW   P51808        32.1     78.9  HLA-B4402  1.01 
    ##  4 FALSE  M026X1 CFKVMFLQR   O75182         5.49   108.   HLA-C0701 30.6  
    ##  5 FALSE  M026X1 DALDREAAL   Q9C093         3.05     7.17 HLA-B0801  0.097
    ##  6 FALSE  M026X1 IQPFAFKGLAN Q7Z2Q7         0.251    0    HLA-B4402 72.5  
    ##  7 FALSE  M026X1 TAPFVIHDIE  Q03181         9.24    35.6  HLA-C0501 56.2  
    ##  8 FALSE  M026X1 APTLFTMLD   Q01201         3.01    54.0  HLA-B4402 60    
    ##  9 FALSE  M026X1 TVEENRPVGT  O60245        68.2   3339.   HLA-B4402 13.8  
    ## 10 FALSE  M026X1 FSQRSQLARH  Q6ZNA1         2.81    12    HLA-A0101  4.59 
    ## # ℹ 50,825 more rows
…
plot.data
```

    ## # A tibble: 2,540,100 × 11
    ##    Entry      ligand tumor      Peptide     rna  ribo allele  rank feature value
    ##    <chr>      <lgl>  <chr>      <chr>     <dbl> <dbl> <chr>  <dbl> <fct>   <dbl>
    ##  1 A0A087WVF3 FALSE  NKIRTIL006 PAKPEQGSS     0     0 HLA-C…    43 CDS_m7G   0  
    ##  2 A0A087WVF3 FALSE  NKIRTIL006 PAKPEQGSS     0     0 HLA-C…    43 CDS_m1A   0  
    ##  3 A0A087WVF3 FALSE  NKIRTIL006 PAKPEQGSS     0     0 HLA-C…    43 CCTCC_…   8  
    ##  4 A0A087WVF3 FALSE  NKIRTIL006 PAKPEQGSS     0     0 HLA-C…    43 CTCC_C…  13  
    ##  5 A0A087WVF3 FALSE  NKIRTIL006 PAKPEQGSS     0     0 HLA-C…    43 CCTC_C…  16  
    ##  6 A0A087WVF3 FALSE  NKIRTIL006 PAKPEQGSS     0     0 HLA-C…    43 GC_per…  58.6
    ##  7 A0A087WVF3 FALSE  NKIRTIL006 PAKPEQGSS     0     0 HLA-C…    43 CCCT_C…  12  
    ##  8 A0A087WVF3 FALSE  NKIRTIL006 PAKPEQGSS     0     0 HLA-C…    43 AGGGG_…   4  
    ##  9 A0A087WVF3 FALSE  NKIRTIL006 PAKPEQGSS     0     0 HLA-C…    43 GGGG_C…   8  
    ## 10 A0A087WVF3 FALSE  NKIRTIL006 PAKPEQGSS     0     0 HLA-C…    43 AGCC_C…   8  
    ## # ℹ 2,540,090 more rows
    ## # ℹ 1 more variable: feature.type <chr>
…
Plot the T statistics as barplots, either all together or facetted.

``` r
feat.classes <- (c("UTR5","CDS" ,"UTR3","miR",  "count"))

plot.data %>% 
  group_by(feature) %>% 
  t_test(value~ligand) %>% 
  adjust_pvalue(method = "bonferroni") -> stats

stats
```

    ## # A tibble: 50 × 10
    ##    feature  .y.   group1 group2    n1    n2 statistic     df         p     p.adj
    ##    <fct>    <chr> <chr>  <chr>  <int> <int>     <dbl>  <dbl>     <dbl>     <dbl>
    ##  1 CDS_m7G  value FALSE  TRUE   40668 10134     -33.5 12402. 8.21e-236 4.11e-234
    ##  2 CDS_m1A  value FALSE  TRUE   40668 10134     -20.4 12689. 8.99e- 91 4.49e- 89
    ##  3 CCTCC_C… value FALSE  TRUE   40668 10134      34.1 44087. 1.5 e-251 7.5 e-250
    ##  4 CTCC_CDS value FALSE  TRUE   40668 10134      33.9 44376. 4.59e-249 2.29e-247
    ##  5 CCTC_CDS value FALSE  TRUE   40668 10134      33.5 43916. 3.07e-243 1.53e-241
    ##  6 GC_perc… value FALSE  TRUE   40668 10134      16.9 16627. 8.11e- 64 4.06e- 62
    ##  7 CCCT_CDS value FALSE  TRUE   40668 10134      33.6 34465. 3.19e-244 1.60e-242
    ##  8 AGGGG_C… value FALSE  TRUE   40668 10134      27.9 24541. 4.58e-169 2.29e-167
    ##  9 GGGG_CDS value FALSE  TRUE   40668 10134      32.6 26810. 2.52e-228 1.26e-226
    ## 10 AGCC_CDS value FALSE  TRUE   40668 10134      31.7 36781. 6.56e-218 3.28e-216
    ## # ℹ 40 more rows
…
