…
Tidy up, and add peptide lengths.

``` r
MS.data %>% 
  mutate(pep.length = str_length(sequence))  -> MS.data

MS.data
```

    ## # A tibble: 26,139 × 4
    ##    sequence   swissprot.id tumor  pep.length
    ##    <chr>      <chr>        <chr>       <int>
    ##  1 AAAAAAAAAR Q504T8       ctrl_2         10
    ##  2 AAAAAAAAAR Q504T8       IFNg_1         10
    ##  3 AAAAAAAAAR Q504T8       IFNg_3         10
    ##  4 AAAAAAAAAR Q504T8       IFNg_4         10
    ##  5 AAAAAAAAK  P50914       ctrl_2          9
    ##  6 AAAAAAAAK  P50914       ctrl_3          9
    ##  7 AAAAAAAAK  P50914       ctrl_4          9
    ##  8 AAAAAAAAR  P58107       ctrl_1          9
    ##  9 AAAAAAAAR  P58107       ctrl_2          9
    ## 10 AAAAAAAAR  P58107       ctrl_3          9
    ## # ℹ 26,129 more rows
…
<img src="1-Prep_data_files/figure-gfm/check_9mers-1.png" style="display: block; margin: auto;" />

Subsample the peptide pools to get a more workable number, 1000 should
suffice

``` r
"../2-random_forest_analyses/Data/Protein_per_Uniprot_entry_library_v3.csv.zip" %>% 
  read_tsv() %>% 
  pull(Entry) -> IDs.in.library

MS.data %>% 
  count(tumor, pep.length)
```

    ## # A tibble: 89 × 3
    ##    tumor  pep.length     n
    ##    <chr>       <int> <int>
    ##  1 IFNg_1          8     4
    ##  2 IFNg_1          9   393
    ##  3 IFNg_1         10   231
    ##  4 IFNg_1         11   183
    ##  5 IFNg_1         12    43
    ##  6 IFNg_1         13    30
    ##  7 IFNg_1         14    10
    ##  8 IFNg_1         15     6
    ##  9 IFNg_1         16     5
    ## 10 IFNg_1         17     1
    ## # ℹ 79 more rows
``` r
MS.data %>% 
  filter(pep.length %in% 9:11) %>% 
  filter(swissprot.id %in% IDs.in.library) %>% 
  distinct(tumor, sequence, .keep_all = T) %>% 
  group_by(tumor) %>% 
  slice_sample(n = 500) %>% 
  mutate(ligand = TRUE) %>% 
  ungroup() -> filtered.peptides

filtered.peptides %>% 
  count(tumor, pep.length)
```

    ## # A tibble: 24 × 3
    ##    tumor  pep.length     n
    ##    <chr>       <int> <int>
    ##  1 IFNg_1          9   247
    ##  2 IFNg_1         10   145
    ##  3 IFNg_1         11   108
    ##  4 IFNg_2          9   253
    ##  5 IFNg_2         10   139
    ##  6 IFNg_2         11   108
    ##  7 IFNg_3          9   253
    ##  8 IFNg_3         10   133
    ##  9 IFNg_3         11   114
    ## 10 IFNg_4          9   257
    ## # ℹ 14 more rows
…
