…
``` r
XGB.results %>% 
  mutate(rank = -rank) %>% 
  mutate(detected = case_when(ligand == TRUE ~ 1,
                              TRUE ~ 0)) %>% 
  pivot_longer(cols = !c("detected","ligand", "tumor", "sequence", "swissprot.id"), 
               names_to =  "model", 
               values_to =  "score") -> XGB.results

XGB.results
```

    ## # A tibble: 16,015,580 × 7
    ##    ligand sequence    swissprot.id tumor  detected model          score
    ##    <lgl>  <chr>       <chr>        <chr>     <dbl> <chr>          <dbl>
    ##  1 TRUE   RLYLNVLNR   Q10713       IFNg_1        1 aff_lib        0.987
    ##  2 TRUE   RLYLNVLNR   Q10713       IFNg_1        1 aff_lib_small  0.995
    ##  3 TRUE   RLYLNVLNR   Q10713       IFNg_1        1 aff_only       0.964
    ##  4 TRUE   RLYLNVLNR   Q10713       IFNg_1        1 rank          -0.043
    ##  5 TRUE   SPDNPSSAL   Q8N1L9       IFNg_1        1 aff_lib        0.982
    ##  6 TRUE   SPDNPSSAL   Q8N1L9       IFNg_1        1 aff_lib_small  0.940
    ##  7 TRUE   SPDNPSSAL   Q8N1L9       IFNg_1        1 aff_only       0.981
    ##  8 TRUE   SPDNPSSAL   Q8N1L9       IFNg_1        1 rank          -0.014
    ##  9 TRUE   SVAEDTSDHRR Q6AI08       IFNg_1        1 aff_lib        0.820
    ## 10 TRUE   SVAEDTSDHRR Q6AI08       IFNg_1        1 aff_lib_small  0.791
    ## # ℹ 16,015,570 more rows
…
Note that `cumsum()` takes an ordered dataframe.

``` r
XGB.results %>% 
  group_by(tumor, model) %>% 
  mutate(random = sample(1:n())) %>% 
  arrange(desc(score), random, .by_group = T) %>% 
    mutate(peptides = 1:n()/n(), 
         detected_ligands = cumsum(detected)/sum(detected)) %>% 
  slice_head(prop = .001) -> XGB.results
 
XGB.results
```

    ## # A tibble: 16,000 × 10
    ## # Groups:   tumor, model [32]
    ##    ligand sequence    swissprot.id tumor  detected model   score random peptides
    ##    <lgl>  <chr>       <chr>        <chr>     <dbl> <chr>   <dbl>  <int>    <dbl>
    ##  1 TRUE   KIMSSPLSK   Q9UNX3       IFNg_1        1 aff_lib 1.00  319746  2.00e-6
    ##  2 TRUE   SPSPSGSVL   P56181       IFNg_1        1 aff_lib 1.00  412731  4.00e-6
    ##  3 FALSE  RPRPPRQLAPL O14979       IFNg_1        0 aff_lib 1.00  375410  5.99e-6
    ##  4 FALSE  SASQPAVEL   Q14677       IFNg_1        0 aff_lib 0.999 321511  7.99e-6
    ##  5 FALSE  FSYQVASTL   Q96DE5       IFNg_1        0 aff_lib 0.999 281762  9.99e-6
    ##  6 TRUE   KLFPKGVFTK  P30041       IFNg_1        1 aff_lib 0.999 171563  1.20e-5
    ##  7 FALSE  FSSEVTAAL   P13639       IFNg_1        0 aff_lib 0.999 230338  1.40e-5
    ##  8 FALSE  HASDRIIAL   P29401       IFNg_1        0 aff_lib 0.999  39573  1.60e-5
    ##  9 TRUE   RLYSVSYLLK  P21333       IFNg_1        1 aff_lib 0.999 457765  1.80e-5
    ## 10 FALSE  YAIKKKDEL   P46782       IFNg_1        0 aff_lib 0.999 128524  2.00e-5
    ## # ℹ 15,990 more rows
    ## # ℹ 1 more variable: detected_ligands <dbl>
…
colors <- c("#6BAED6", "#756CB1", "#5F3D8C")

XGB.results %>% 
  filter(model %in% model.order) %>% 
  mutate(model = as_factor(model),
         model = fct_relevel(model, model.order),
         tumor = as_factor(tumor),
         tumor = fct_relevel(tumor, tumor.order)) %>% 
  separate(tumor, into = c("treatment", "tumor")) -> XGB.results

XGB.results
```

    ## # A tibble: 12,000 × 11
    ## # Groups:   model [3]
    ##    ligand sequence    swissprot.id treatment tumor detected model   score random
    ##    <lgl>  <chr>       <chr>        <chr>     <chr>    <dbl> <fct>   <dbl>  <int>
    ##  1 TRUE   KIMSSPLSK   Q9UNX3       IFNg      1            1 aff_lib 1.00  319746
    ##  2 TRUE   SPSPSGSVL   P56181       IFNg      1            1 aff_lib 1.00  412731
    ##  3 FALSE  RPRPPRQLAPL O14979       IFNg      1            0 aff_lib 1.00  375410
    ##  4 FALSE  SASQPAVEL   Q14677       IFNg      1            0 aff_lib 0.999 321511
    ##  5 FALSE  FSYQVASTL   Q96DE5       IFNg      1            0 aff_lib 0.999 281762
    ##  6 TRUE   KLFPKGVFTK  P30041       IFNg      1            1 aff_lib 0.999 171563
    ##  7 FALSE  FSSEVTAAL   P13639       IFNg      1            0 aff_lib 0.999 230338
    ##  8 FALSE  HASDRIIAL   P29401       IFNg      1            0 aff_lib 0.999  39573
    ##  9 TRUE   RLYSVSYLLK  P21333       IFNg      1            1 aff_lib 0.999 457765
    ## 10 FALSE  YAIKKKDEL   P46782       IFNg      1            0 aff_lib 0.999 128524
    ## # ℹ 11,990 more rows
    ## # ℹ 2 more variables: peptides <dbl>, detected_ligands <dbl>
…
