…
``` r
XGB.results %>% 
  mutate(detected = case_when(ligand == TRUE ~ 1,
                              TRUE ~ 0)) %>% 
  mutate(rank = -rank) %>% 
  pivot_longer(cols = !c("detected", "ligand", "tumor", "swissprot_id", "Peptide", "allele"), 
               names_to =  "model", 
               values_to =  "score") -> XGB.results

XGB.results
```

    ## # A tibble: 39,926,724 × 8
    ##    ligand Peptide   swissprot_id tumor  allele    detected model           score
    ##    <lgl>  <chr>     <chr>        <chr>  <chr>        <dbl> <chr>           <dbl>
    ##  1 FALSE  ELHSQLDGS Q14CN2       M026X1 HLA-A0201        0 aff_lib       1.97e-3
    ##  2 FALSE  ELHSQLDGS Q14CN2       M026X1 HLA-A0201        0 aff_lib_small 1.89e-3
    ##  3 FALSE  ELHSQLDGS Q14CN2       M026X1 HLA-A0201        0 aff_lib_smal… 1.30e-5
    ##  4 FALSE  ELHSQLDGS Q14CN2       M026X1 HLA-A0201        0 aff_lib_smal… 5.25e-5
    ##  5 FALSE  ELHSQLDGS Q14CN2       M026X1 HLA-A0201        0 aff_lib_smal… 1.11e-5
    ##  6 FALSE  ELHSQLDGS Q14CN2       M026X1 HLA-A0201        0 aff_only      7.85e-3
    ##  7 FALSE  ELHSQLDGS Q14CN2       M026X1 HLA-A0201        0 aff_ribo      9.66e-5
    ##  8 FALSE  ELHSQLDGS Q14CN2       M026X1 HLA-A0201        0 aff_rna_ribo  8.34e-6
    ##  9 FALSE  ELHSQLDGS Q14CN2       M026X1 HLA-A0201        0 aff_rna       8.94e-6
    ## 10 FALSE  ELHSQLDGS Q14CN2       M026X1 HLA-A0201        0 rna           0      
    ## # ℹ 39,926,714 more rows
…
tumor.order <- c("SKMEL95", "M026X1","NKIRTIL006")

XGB.results %>% 
  mutate(model = as_factor(model),
         model = fct_relevel(model, model.order),
         tumor = factor(tumor, levels = tumor.order)) %>% 
  filter(model %in% model.order) -> XGB.results

XGB.results
```

    ## # A tibble: 29,934 × 11
    ## # Groups:   tumor, model [27]
    ##    ligand Peptide swissprot_id tumor allele detected model score random peptides
    ##    <lgl>  <chr>   <chr>        <fct> <chr>     <dbl> <fct> <dbl>  <int>    <dbl>
    ##  1 TRUE   LADAIN… P08670       M026… HLA-C…        1 aff_… 1.00   17096  1.17e-6
    ##  2 FALSE  HAFEII… P46782       M026… HLA-C…        0 aff_… 1.00  564693  2.34e-6
    ##  3 TRUE   KIYEGQ… P46777       M026… HLA-A…        1 aff_… 1.00  144208  3.51e-6
    ##  4 FALSE  AENGKS… P61769       M026… HLA-B…        0 aff_… 1.00  406613  4.67e-6
    ##  5 FALSE  AEEAKL… P56211       M026… HLA-B…        0 aff_… 1.00  846943  5.84e-6
    ##  6 FALSE  YQDLLN… P08670       M026… HLA-C…        0 aff_… 1.00  305788  7.01e-6
    ##  7 FALSE  YVDDGL… P14618       M026… HLA-C…        0 aff_… 1.00  271965  8.18e-6
    ##  8 FALSE  EENEEK… Q96NE9       M026… HLA-B…        0 aff_… 0.999 457024  9.35e-6
    ##  9 TRUE   VGDPST… O15042       M026… HLA-C…        1 aff_… 0.999 179187  1.05e-5
    ## 10 FALSE  ARNPPG… Q16629       M026… HLA-C…        0 aff_… 0.999 664806  1.17e-5
    ## # ℹ 29,924 more rows
    ## # ℹ 1 more variable: detected_ligands <dbl>
…
    ## Warning: `cols` is now required when using `unnest()`.
    ## ℹ Please use `cols = c(dat)`.

``` r
coordinates <- get_cutoffs(lig = XGB.results$ligand,
                           preds = map2(list(XGB.results), model.order, ~pull(.x, .y)),
                           mods =  model.order,
                           thresh = 0.1)

model.results.info
```

    ## # A tibble: 2,197,609 × 25
    ##    model    threshold specificity sensitivity accuracy     tn    tp    fn     fp
    ##    <chr>        <dbl>       <dbl>       <dbl>    <dbl>  <dbl> <dbl> <dbl>  <dbl>
    ##  1 aff_on… -Inf             0           1     0.000994 0       3306     0 3.32e6
    ##  2 aff_on…    0.00565       0.134       0.999 0.135    4.45e5  3303     3 2.88e6
    ##  3 aff_on…    0.00693       0.155       0.999 0.156    5.14e5  3303     3 2.81e6
    ##  4 aff_on…    0.00819       0.423       0.996 0.424    1.41e6  3292    14 1.92e6
    ##  5 aff_on…    0.0112        0.447       0.995 0.447    1.49e6  3289    17 1.84e6
    ##  6 aff_on…    0.0158        0.508       0.994 0.509    1.69e6  3286    20 1.63e6
    ##  7 aff_on…    0.0278        0.542       0.994 0.543    1.80e6  3286    20 1.52e6
    ##  8 aff_on…    0.0447        0.595       0.992 0.595    1.98e6  3280    26 1.35e6
    ##  9 aff_on…    0.0647        0.619       0.992 0.620    2.06e6  3278    28 1.27e6
    ## 10 aff_on…    0.0950        0.695       0.985 0.696    2.31e6  3256    50 1.01e6
    ## # ℹ 2,197,599 more rows
    ## # ℹ 16 more variables: npv <dbl>, ppv <dbl>, fdr <dbl>, fpr <dbl>, tpr <dbl>,
    ## #   tnr <dbl>, fnr <dbl>, `1-specificity` <dbl>, `1-sensitivity` <dbl>,
    ## #   `1-accuracy` <dbl>, `1-npv` <dbl>, `1-ppv` <dbl>, precision <dbl>,
    ## #   recall <dbl>, youden <dbl>, closest.topleft <dbl>
…
