…
Tidy up, and add peptide lengths.

``` r
MS.data %>% 
  mutate(pep.length = str_length(sequence))  -> MS.data

MS.data
```

    ## # A tibble: 53,419 × 4
    ##    sequence    swissprot.id tumor      pep.length
    ##    <chr>       <chr>        <chr>           <int>
    ##  1 AAAAAAAAAAA P55011       CD165spike         11
    ##  2 AAAAAAAAAR  Q504T8       RA957              10
    ##  3 AAAAAAAAAY  Q04726       TIL3               10
    ##  4 AAAAAAAAR   Q504T8       RA957               9
    ##  5 AAAAAAAAY   Q04726       TIL3                9
    ##  6 AAAAAAAER   O14497       RA957               9
    ##  7 AAAAAAAGR   P26599       RA957               9
    ##  8 AAAAAAAVGVR Q9NRU3       RA957              11
    ##  9 AAAAAAERC   Q6ZNJ1       RA957               9
    ## 10 AAAAAAPGR   P60484       RA957               9
    ## # ℹ 53,409 more rows
…
<img src="1-Prep_data_files/figure-gfm/check_9mers-1.png" style="display: block; margin: auto;" />

Subsample the peptide pools to get a more workable number, 1000 should
suffice

``` r
"../2-random_forest_analyses/Data/Protein_per_Uniprot_entry_library_v3.csv.zip" %>% 
  read_tsv() %>% 
  pull(Entry) -> IDs.in.library

MS.data %>% 
  count(tumor, pep.length)
```

    ## # A tibble: 117 × 3
    ##    tumor      pep.length     n
    ##    <chr>           <int> <int>
    ##  1 CD165spike          8    60
    ##  2 CD165spike          9  4051
    ##  3 CD165spike         10   868
    ##  4 CD165spike         11   544
    ##  5 CD165spike         12   132
    ##  6 CD165spike         13    91
    ##  7 CD165spike         14   107
    ##  8 CD165spike         15   123
    ##  9 CD165spike         16   112
    ## 10 CD165spike         17    92
    ## # ℹ 107 more rows
``` r
MS.data %>% 
  filter(pep.length %in% 9:11) %>% 
  filter(swissprot.id %in% IDs.in.library) %>% 
  distinct(tumor, sequence, .keep_all = T) %>% 
  group_by(tumor) %>% 
  slice_sample(n = 1000) %>% 
  mutate(ligand = TRUE) %>% 
  ungroup() -> filtered.peptides

filtered.peptides %>% 
  count(tumor, pep.length)
```

    ## # A tibble: 21 × 3
    ##    tumor      pep.length     n
    ##    <chr>           <int> <int>
    ##  1 CD165spike          9   752
    ##  2 CD165spike         10   163
    ##  3 CD165spike         11    85
    ##  4 CM647               9   792
    ##  5 CM647              10   121
    ##  6 CM647              11    87
    ##  7 JY                  9   644
    ##  8 JY                 10   181
    ##  9 JY                 11   175
    ## 10 PD42                9   708
    ## # ℹ 11 more rows
…
