…
``` r
XGB.results %>% 
  mutate(rank = -rank) %>% 
  mutate(detected = case_when(ligand == TRUE ~ 1,
                              TRUE ~ 0)) %>% 
  pivot_longer(cols = !c("detected","ligand", "tumor", "sequence", "swissprot.id"), 
               names_to =  "model", 
               values_to =  "score") -> XGB.results

XGB.results
```

    ## # A tibble: 28,027,260 × 7
    ##    ligand sequence    swissprot.id tumor      detected model          score
    ##    <lgl>  <chr>       <chr>        <chr>         <dbl> <chr>          <dbl>
    ##  1 TRUE   GQHPNIITL   Q15418       CD165spike        1 aff_lib        0.988
    ##  2 TRUE   GQHPNIITL   Q15418       CD165spike        1 aff_lib_small  0.981
    ##  3 TRUE   GQHPNIITL   Q15418       CD165spike        1 aff_only       0.964
    ##  4 TRUE   GQHPNIITL   Q15418       CD165spike        1 rank          -0.029
    ##  5 TRUE   KLKEKESAL   O15078       CD165spike        1 aff_lib        0.528
    ##  6 TRUE   KLKEKESAL   O15078       CD165spike        1 aff_lib_small  0.600
    ##  7 TRUE   KLKEKESAL   O15078       CD165spike        1 aff_only       0.812
    ##  8 TRUE   KLKEKESAL   O15078       CD165spike        1 rank          -0.449
    ##  9 TRUE   SEEDRVVVIRF P83876       CD165spike        1 aff_lib        0.705
    ## 10 TRUE   SEEDRVVVIRF P83876       CD165spike        1 aff_lib_small  0.614
    ## # ℹ 28,027,250 more rows
…
Note that `cumsum()` takes an ordered dataframe.

``` r
XGB.results %>% 
  group_by(tumor, model) %>% 
  mutate(random = sample(1:n())) %>% 
  arrange(desc(score), random, .by_group = T) %>% 
    mutate(peptides = 1:n()/n(), 
         detected_ligands = cumsum(detected)/sum(detected)) %>% 
  slice_head(prop = .001) -> XGB.results
 
XGB.results
```

    ## # A tibble: 28,000 × 10
    ## # Groups:   tumor, model [28]
    ##    ligand sequence  swissprot.id tumor      detected model score random peptides
    ##    <lgl>  <chr>     <chr>        <chr>         <dbl> <chr> <dbl>  <int>    <dbl>
    ##  1 FALSE  SYLDKVRAL P13645       CD165spike        0 aff_… 1.00  972402  9.99e-7
    ##  2 FALSE  KEFTPPVQA P68871       CD165spike        0 aff_… 1.00  998427  2.00e-6
    ##  3 FALSE  AQAEDALRV A8MT69       CD165spike        0 aff_… 1.00  981612  3.00e-6
    ##  4 FALSE  NYIDKVRFL P08670       CD165spike        0 aff_… 1.00  493106  4.00e-6
    ##  5 TRUE   VYGPLPQSF P13073       CD165spike        1 aff_… 1.00  209659  5.00e-6
    ##  6 FALSE  SFIDKVRFL P35908       CD165spike        0 aff_… 1.00  173388  5.99e-6
    ##  7 TRUE   RQYAKDIGF P62273       CD165spike        1 aff_… 1.00  899372  6.99e-6
    ##  8 FALSE  YAYDNFGVL P27797       CD165spike        0 aff_… 1.00  837518  7.99e-6
    ##  9 TRUE   REVSGIKAA P02545       CD165spike        1 aff_… 0.999 868018  8.99e-6
    ## 10 FALSE  REMDQTMAA P30085       CD165spike        0 aff_… 0.999  37511  9.99e-6
    ## # ℹ 27,990 more rows
    ## # ℹ 1 more variable: detected_ligands <dbl>
…
tumor.order <- as.character(unique(XGB.results$tumor))

colors <- c("#6BAED6", "#756CB1", "#5F3D8C")

XGB.results %>% 
  filter(model %in% model.order) %>% 
  mutate(model = as_factor(model),
         model = fct_relevel(model, model.order),
         tumor = as_factor(tumor),
         tumor = fct_relevel(tumor, tumor.order)) -> XGB.results

XGB.results
```

    ## # A tibble: 21,000 × 10
    ## # Groups:   tumor, model [21]
    ##    ligand sequence  swissprot.id tumor      detected model score random peptides
    ##    <lgl>  <chr>     <chr>        <fct>         <dbl> <fct> <dbl>  <int>    <dbl>
    ##  1 FALSE  SYLDKVRAL P13645       CD165spike        0 aff_… 1.00  972402  9.99e-7
    ##  2 FALSE  KEFTPPVQA P68871       CD165spike        0 aff_… 1.00  998427  2.00e-6
    ##  3 FALSE  AQAEDALRV A8MT69       CD165spike        0 aff_… 1.00  981612  3.00e-6
    ##  4 FALSE  NYIDKVRFL P08670       CD165spike        0 aff_… 1.00  493106  4.00e-6
    ##  5 TRUE   VYGPLPQSF P13073       CD165spike        1 aff_… 1.00  209659  5.00e-6
    ##  6 FALSE  SFIDKVRFL P35908       CD165spike        0 aff_… 1.00  173388  5.99e-6
    ##  7 TRUE   RQYAKDIGF P62273       CD165spike        1 aff_… 1.00  899372  6.99e-6
    ##  8 FALSE  YAYDNFGVL P27797       CD165spike        0 aff_… 1.00  837518  7.99e-6
    ##  9 TRUE   REVSGIKAA P02545       CD165spike        1 aff_… 0.999 868018  8.99e-6
    ## 10 FALSE  REMDQTMAA P30085       CD165spike        0 aff_… 0.999  37511  9.99e-6
    ## # ℹ 20,990 more rows
    ## # ℹ 1 more variable: detected_ligands <dbl>
…
    ## Warning: `cols` is now required when using `unnest()`.
    ## ℹ Please use `cols = c(dat)`.

``` r
coordinates <- get_cutoffs(lig = XGB.results$ligand,
                           preds = map2(list(XGB.results), model.order, ~pull(.x, .y)),
                           mods =  model.order,
                           thresh = 0.1)

model.results.info
```

    ## # A tibble: 881,907 × 25
    ##    model    threshold specificity sensitivity accuracy     tn    tp    fn     fp
    ##    <fct>        <dbl>       <dbl>       <dbl>    <dbl>  <dbl> <dbl> <dbl>  <dbl>
    ##  1 aff_on… -Inf             0           1     0.000999 0       7000     0 7.00e6
    ##  2 aff_on…    0.00565       0.147       0.999 0.148    1.03e6  6993     7 5.97e6
    ##  3 aff_on…    0.00693       0.169       0.999 0.170    1.18e6  6993     7 5.81e6
    ##  4 aff_on…    0.00819       0.427       0.996 0.428    2.99e6  6974    26 4.01e6
    ##  5 aff_on…    0.0112        0.449       0.996 0.450    3.15e6  6972    28 3.85e6
    ##  6 aff_on…    0.0158        0.508       0.995 0.509    3.56e6  6965    35 3.44e6
    ##  7 aff_on…    0.0278        0.541       0.994 0.541    3.79e6  6960    40 3.21e6
    ##  8 aff_on…    0.0447        0.593       0.993 0.594    4.15e6  6954    46 2.85e6
    ##  9 aff_on…    0.0647        0.618       0.993 0.618    4.32e6  6950    50 2.68e6
    ## 10 aff_on…    0.0950        0.694       0.990 0.695    4.86e6  6931    69 2.14e6
    ## # ℹ 881,897 more rows
    ## # ℹ 16 more variables: npv <dbl>, ppv <dbl>, fdr <dbl>, fpr <dbl>, tpr <dbl>,
    ## #   tnr <dbl>, fnr <dbl>, `1-specificity` <dbl>, `1-sensitivity` <dbl>,
    ## #   `1-accuracy` <dbl>, `1-npv` <dbl>, `1-ppv` <dbl>, precision <dbl>,
    ## #   recall <dbl>, youden <dbl>, closest.topleft <dbl>
…
