…
Tidy up, and add peptide lengths.

``` r
MS.data.filtered %>% 
  mutate(pep.length = nchar(sequence))  -> MS.data.filtered

MS.data.filtered
```

    ## # A tibble: 3,027 × 5
    ##    sequence    allele `Mapped protein`                       plotType pep.length
    ##    <chr>       <chr>  <chr>                                  <chr>         <int>
    ##  1 ALWELSAALLR A0301  ENST00000571146.1_3_17:7160220-716028… 3' dORF          11
    ##  2 RVIQIHLKK   A0301  ENST00000393415.7_1_12:69229612-69230… Out-of-…          9
    ##  3 AVIVWSFMK   A3101  ENST00000514133.1_1_4:52895917-528959… 3' dORF           9
    ##  4 GTPKLIWQQR  A3101  ENST00000360051.7_1_2:242256941-24225… 5' uORF          10
    ##  5 ALGPPRPLR   A3101  ENST00000341068.7_1_2:112641540-11264… 5' uORF           9
    ##  6 AVLKPGAWSRK A0301  ENST00000308521.9_1_22:39436844-39436… 5' uORF          11
    ##  7 TTRPWEVTLGR A3101  ENST00000407997.3_1_22:39473245-39473… 5' uORF          11
    ##  8 AVLKPEAWSRK A0301  ENST00000407997.3_1_22:39473245-39473… 5' uORF          11
    ##  9 MLLLMLLYK   A0301  ENST00000359142.7_1_12:90049779-90049… 5' uORF           9
    ## 10 AAMPARLLGWR A3101  ENST00000622395.4_1_1:161147236-16114… 5' uORF          11
    ## # ℹ 3,017 more rows
…
    ## Warning in inner_join(., convert, by = c(ens.transcript = "Ensembl Transcript ID")): Detected an unexpected many-to-many relationship between `x` and `y`.
    ## ℹ Row 2564 of `x` matches multiple rows in `y`.
    ## ℹ Row 24375 of `y` matches multiple rows in `x`.
    ## ℹ If a many-to-many relationship is expected, set `relationship =
    ##   "many-to-many"` to silence this warning.

``` r
MS.data.filtered
```

    ## # A tibble: 1,910 × 7
    ##    sequence       allele `Mapped protein`     plotType pep.length ens.transcript
    ##    <chr>          <chr>  <chr>                <chr>         <int> <chr>         
    ##  1 GTPKLIWQQR     A3101  ENST00000360051.7_1… 5' uORF          10 ENST000003600…
    ##  2 ALGPPRPLR      A3101  ENST00000341068.7_1… 5' uORF           9 ENST000003410…
    ##  3 AVLKPGAWSRK    A0301  ENST00000308521.9_1… 5' uORF          11 ENST000003085…
    ##  4 TTRPWEVTLGR    A3101  ENST00000407997.3_1… 5' uORF          11 ENST000004079…
    ##  5 AVLKPEAWSRK    A0301  ENST00000407997.3_1… 5' uORF          11 ENST000004079…
    ##  6 MLLLMLLYK      A0301  ENST00000359142.7_1… 5' uORF           9 ENST000003591…
    ##  7 ALFSMLTTK      A0301  ENST00000378119.8_1… 5' uORF           9 ENST000003781…
    ##  8 TSLSRPLIGK     A0301  ENST00000336557.9_1… 5' uORF          10 ENST000003365…
    ##  9 RVPFSHPPR      A3101  ENST00000528542.6_2… 5' uORF           9 ENST000005285…
    ## 10 KIKSFEKSNSWSWK A0301  ENST00000382952.7_2… 5' uORF          14 ENST000003829…
    ## # ℹ 1,900 more rows
    ## # ℹ 1 more variable: `UniProt/SwissProt Accession` <chr>
…
MS.data.filtered %>% 
  rename(swissprot.id = `UniProt/SwissProt Accession`) %>% 
  filter(swissprot.id %in% IDs.in.library) %>% 
  mutate(ligand = TRUE) %>% 
  ungroup() %>% 
  select(sequence, allele, swissprot.id, ligand) -> filtered.peptides

filtered.peptides
```

    ## # A tibble: 1,892 × 4
    ##    sequence       allele swissprot.id ligand
    ##    <chr>          <chr>  <chr>        <lgl> 
    ##  1 GTPKLIWQQR     A3101  Q15019       TRUE  
    ##  2 ALGPPRPLR      A3101  Q9H1A4       TRUE  
    ##  3 AVLKPGAWSRK    A0301  Q8IUX4       TRUE  
    ##  4 TTRPWEVTLGR    A3101  Q9HC16       TRUE  
    ##  5 AVLKPEAWSRK    A0301  Q9HC16       TRUE  
    ##  6 MLLLMLLYK      A0301  P20020       TRUE  
    ##  7 ALFSMLTTK      A0301  Q9GZU0       TRUE  
    ##  8 TSLSRPLIGK     A0301  Q9UHD4       TRUE  
    ##  9 RVPFSHPPR      A3101  Q8N4Y2       TRUE  
    ## 10 KIKSFEKSNSWSWK A0301  Q13363       TRUE  
    ## # ℹ 1,882 more rows
…
