…
``` r
XGB.results %>% 
  mutate(rank = -rank) %>% 
  mutate(detected = case_when(ligand == TRUE ~ 1,
                              TRUE ~ 0)) %>% 
  pivot_longer(cols = !c("detected","ligand", "allele", "sequence", "swissprot.id"), 
               names_to =  "model", 
               values_to =  "score") -> XGB.results

XGB.results
```

    ## # A tibble: 7,575,408 × 7
    ##    ligand sequence   swissprot.id allele detected model          score
    ##    <lgl>  <chr>      <chr>        <chr>     <dbl> <chr>          <dbl>
    ##  1 TRUE   GTPKLIWQQR Q15019       A3101         1 aff_lib_small  0.976
    ##  2 TRUE   GTPKLIWQQR Q15019       A3101         1 aff_lib_large  0.919
    ##  3 TRUE   GTPKLIWQQR Q15019       A3101         1 aff_only       0.812
    ##  4 TRUE   GTPKLIWQQR Q15019       A3101         1 rank          -0.447
    ##  5 TRUE   VVRSNVALVR P27930       A3101         1 aff_lib_small  0.542
    ##  6 TRUE   VVRSNVALVR P27930       A3101         1 aff_lib_large  0.540
    ##  7 TRUE   VVRSNVALVR P27930       A3101         1 aff_only       0.720
    ##  8 TRUE   VVRSNVALVR P27930       A3101         1 rank          -0.669
    ##  9 TRUE   AFLGPRPWPR Q86UV5       A3101         1 aff_lib_small  0.934
    ## 10 TRUE   AFLGPRPWPR Q86UV5       A3101         1 aff_lib_large  0.937
    ## # ℹ 7,575,398 more rows
…
Note that `cumsum()` takes an ordered dataframe.

``` r
XGB.results %>% 
  group_by(allele, model) %>% 
  mutate(random = sample(1:n())) %>% 
  arrange(desc(score), random, .by_group = T) %>% 
    mutate(peptides = 1:n()/n(), 
         detected_ligands = cumsum(detected)/sum(detected)) %>% 
  slice_head(prop = .001) -> XGB.results
 
XGB.results
```

    ## # A tibble: 7,568 × 10
    ## # Groups:   allele, model [76]
    ##    ligand sequence     swissprot.id allele detected model  score random peptides
    ##    <lgl>  <chr>        <chr>        <chr>     <dbl> <chr>  <dbl>  <int>    <dbl>
    ##  1 TRUE   SVWSTLSGK    P53990       A0301         1 aff_l… 0.998 101561  8.47e-6
    ##  2 TRUE   RVFEVYHTTVLK P35222       A0301         1 aff_l… 0.998 106611  1.69e-5
    ##  3 TRUE   RLWTSVAVLK   Q9NUP9       A0301         1 aff_l… 0.998  82892  2.54e-5
    ##  4 TRUE   SLSSWSLMK    P09001       A0301         1 aff_l… 0.997   4878  3.39e-5
    ##  5 FALSE  KIVNLGSSK    Q7RTV0       A0301         0 aff_l… 0.997   3890  4.23e-5
    ##  6 FALSE  KLWNPRNFK    Q53GS9       A0301         0 aff_l… 0.997  77908  5.08e-5
    ##  7 TRUE   SVASISLTK    Q969Q0       A0301         1 aff_l… 0.997  44332  5.93e-5
    ##  8 TRUE   RLSVPPLCK    Q9NYL2       A0301         1 aff_l… 0.997   5049  6.77e-5
    ##  9 FALSE  KVCANHVITK   P49792       A0301         0 aff_l… 0.997  18979  7.62e-5
    ## 10 FALSE  RTFLRAVTK    O43159       A0301         0 aff_l… 0.997  10356  8.47e-5
    ## # ℹ 7,558 more rows
    ## # ℹ 1 more variable: detected_ligands <dbl>
…
colors <- c("#6BAED6", "#756CB1", "#5F3D8C")

XGB.results %>% 
  filter(model %in% model.order) %>% 
  mutate(model = as_factor(model),
         model = fct_relevel(model, model.order),
         allele = as_factor(allele),
         allele = fct_relevel(allele, allele.order)) -> XGB.results

XGB.results
```

    ## # A tibble: 5,676 × 10
    ## # Groups:   allele, model [57]
    ##    ligand sequence     swissprot.id allele detected model  score random peptides
    ##    <lgl>  <chr>        <chr>        <fct>     <dbl> <fct>  <dbl>  <int>    <dbl>
    ##  1 TRUE   SVWSTLSGK    P53990       A0301         1 aff_l… 0.998 101561  8.47e-6
    ##  2 TRUE   RVFEVYHTTVLK P35222       A0301         1 aff_l… 0.998 106611  1.69e-5
    ##  3 TRUE   RLWTSVAVLK   Q9NUP9       A0301         1 aff_l… 0.998  82892  2.54e-5
    ##  4 TRUE   SLSSWSLMK    P09001       A0301         1 aff_l… 0.997   4878  3.39e-5
    ##  5 FALSE  KIVNLGSSK    Q7RTV0       A0301         0 aff_l… 0.997   3890  4.23e-5
    ##  6 FALSE  KLWNPRNFK    Q53GS9       A0301         0 aff_l… 0.997  77908  5.08e-5
    ##  7 TRUE   SVASISLTK    Q969Q0       A0301         1 aff_l… 0.997  44332  5.93e-5
    ##  8 TRUE   RLSVPPLCK    Q9NYL2       A0301         1 aff_l… 0.997   5049  6.77e-5
    ##  9 FALSE  KVCANHVITK   P49792       A0301         0 aff_l… 0.997  18979  7.62e-5
    ## 10 FALSE  RTFLRAVTK    O43159       A0301         0 aff_l… 0.997  10356  8.47e-5
    ## # ℹ 5,666 more rows
    ## # ℹ 1 more variable: detected_ligands <dbl>
…
