…
Tidy up, and add peptide lengths.

``` r
MS.data %>% 
  transmute(sequence = PEP.GroupingKey, tumor = tumor, gene.symbol = PG.Genes) %>% 
  mutate(pep.length = str_length(sequence))  -> MS.data

MS.data
```

    ## # A tibble: 212,967 × 4
    ##    sequence    tumor     gene.symbol pep.length
    ##    <chr>       <chr>     <chr>            <int>
    ##  1 KVLEPSETLVV C3N-02287 SON                 11
    ##  2 KVLEPSETLVV C3N-02288 SON                 11
    ##  3 KVLEPSETLVV C3N-02290 SON                 11
    ##  4 KVLEPSETLVV C3N-02671 SON                 11
    ##  5 KVLEPSETLVV C3N-02672 SON                 11
    ##  6 KVLEPSETLVV C3N-03023 SON                 11
    ##  7 KVLEPSETLVV C3N-03421 SON                 11
    ##  8 SPEPSKIML   C3N-03023 SON                  9
    ##  9 SPEPSKIML   C3N-03421 SON                  9
    ## 10 FPESSAIEAL  C3N-03023 SON                 10
    ## # ℹ 212,957 more rows
…
Subsample the peptide pools to get a more workable number, 500 is
slightly under the smallest allele-set.

``` r
"../2-random_forest_analyses/Data/Protein_per_Uniprot_entry_library_v3.csv.zip" %>% 
  read_tsv() %>% 
  pull(Entry) -> IDs.in.library

MS.data %>% 
  count(tumor, pep.length)
```

    ## # A tibble: 64 × 3
    ##    tumor     pep.length     n
    ##    <chr>          <int> <int>
    ##  1 C3N-02287          8  1993
    ##  2 C3N-02287          9 21879
    ##  3 C3N-02287         10  8326
    ##  4 C3N-02287         11  4095
    ##  5 C3N-02287         12  1139
    ##  6 C3N-02287         13   556
    ##  7 C3N-02287         14   349
    ##  8 C3N-02287         15   302
    ##  9 C3N-02288          8  1988
    ## 10 C3N-02288          9 15303
    ## # ℹ 54 more rows
…
