…
``` r
XGB.results %>% 
  mutate(rank = -rank) %>% 
  mutate(detected = case_when(ligand == TRUE ~ 1,
                              TRUE ~ 0)) %>% 
  pivot_longer(cols = !c("detected","ligand", "tumor", "sequence", "swissprot.id"), 
               names_to =  "model", 
               values_to =  "score") -> XGB.results

XGB.results
```

    ## # A tibble: 20,019,550 × 7
    ##    ligand sequence    swissprot.id tumor     detected model          score
    ##    <lgl>  <chr>       <chr>        <chr>        <dbl> <chr>          <dbl>
    ##  1 TRUE   VAYPHDGKIFF Q9UKN5       C3N-02287        1 aff_lib        0.808
    ##  2 TRUE   VAYPHDGKIFF Q9UKN5       C3N-02287        1 aff_lib_small  0.539
    ##  3 TRUE   VAYPHDGKIFF Q9UKN5       C3N-02287        1 aff_only       0.906
    ##  4 TRUE   VAYPHDGKIFF Q9UKN5       C3N-02287        1 rank          -0.277
    ##  5 TRUE   VAYPHDGKIFF Q9UKN5       C3N-02287        1 rankExp        0.821
    ##  6 TRUE   SVLRSFRVAK  Q6UXN9       C3N-02287        1 aff_lib        0.918
    ##  7 TRUE   SVLRSFRVAK  Q6UXN9       C3N-02287        1 aff_lib_small  0.920
    ##  8 TRUE   SVLRSFRVAK  Q6UXN9       C3N-02287        1 aff_only       0.906
    ##  9 TRUE   SVLRSFRVAK  Q6UXN9       C3N-02287        1 rank          -0.259
    ## 10 TRUE   SVLRSFRVAK  Q6UXN9       C3N-02287        1 rankExp        0.255
    ## # ℹ 20,019,540 more rows
…
Note that `cumsum()` takes an ordered dataframe.

``` r
XGB.results %>% 
  group_by(tumor, model) %>% 
  mutate(random = sample(1:n())) %>% 
  arrange(desc(score), random, .by_group = T) %>% 
    mutate(peptides = 1:n()/n(), 
         detected_ligands = cumsum(detected)/sum(detected)) %>% 
  slice_head(prop = .001) -> XGB.results
 
XGB.results
```

    ## # A tibble: 20,000 × 10
    ## # Groups:   tumor, model [40]
    ##    ligand sequence   swissprot.id tumor     detected model score random peptides
    ##    <lgl>  <chr>      <chr>        <chr>        <dbl> <chr> <dbl>  <int>    <dbl>
    ##  1 TRUE   ALKNPPINTK O15511       C3N-02287        1 aff_… 1.00  343167  2.00e-6
    ##  2 TRUE   TENDIANFF  P31942       C3N-02287        1 aff_… 1.00  344309  4.00e-6
    ##  3 FALSE  KAQYEDIAQK P04264       C3N-02287        0 aff_… 1.00  463885  5.99e-6
    ##  4 TRUE   EEQKKLEEL  Q9Y2S6       C3N-02287        1 aff_… 1.00   59372  7.99e-6
    ##  5 FALSE  SHVDPIHIF  Q6P6C2       C3N-02287        0 aff_… 0.999 225595  9.99e-6
    ##  6 FALSE  FTKEAYKKY  P13693       C3N-02287        0 aff_… 0.999 383926  1.20e-5
    ##  7 FALSE  GLFNRIIRK  Q9H0A0       C3N-02287        0 aff_… 0.999 159105  1.40e-5
    ##  8 FALSE  KMMDKVEFV  P49591       C3N-02287        0 aff_… 0.999  19908  1.60e-5
    ##  9 FALSE  KMNPPKFSK  P35580       C3N-02287        0 aff_… 0.999 158628  1.80e-5
    ## 10 TRUE   SESNLRKAF  P55072       C3N-02287        1 aff_… 0.999 402101  2.00e-5
    ## # ℹ 19,990 more rows
    ## # ℹ 1 more variable: detected_ligands <dbl>
…
tumor.order <- as.character(unique(XGB.results$tumor))

colors <- c("#6BAED6", "#756CB1", "#5F3D8C")

XGB.results %>% 
  filter(model %in% model.order) %>% 
  mutate(model = as_factor(model),
         model = fct_relevel(model, model.order),
         tumor = as_factor(tumor),
         tumor = fct_relevel(tumor, tumor.order)) -> XGB.results

XGB.results
```

    ## # A tibble: 12,000 × 10
    ## # Groups:   tumor, model [24]
    ##    ligand sequence   swissprot.id tumor     detected model score random peptides
    ##    <lgl>  <chr>      <chr>        <fct>        <dbl> <fct> <dbl>  <int>    <dbl>
    ##  1 TRUE   ALKNPPINTK O15511       C3N-02287        1 aff_… 1.00  343167  2.00e-6
    ##  2 TRUE   TENDIANFF  P31942       C3N-02287        1 aff_… 1.00  344309  4.00e-6
    ##  3 FALSE  KAQYEDIAQK P04264       C3N-02287        0 aff_… 1.00  463885  5.99e-6
    ##  4 TRUE   EEQKKLEEL  Q9Y2S6       C3N-02287        1 aff_… 1.00   59372  7.99e-6
    ##  5 FALSE  SHVDPIHIF  Q6P6C2       C3N-02287        0 aff_… 0.999 225595  9.99e-6
    ##  6 FALSE  FTKEAYKKY  P13693       C3N-02287        0 aff_… 0.999 383926  1.20e-5
    ##  7 FALSE  GLFNRIIRK  Q9H0A0       C3N-02287        0 aff_… 0.999 159105  1.40e-5
    ##  8 FALSE  KMMDKVEFV  P49591       C3N-02287        0 aff_… 0.999  19908  1.60e-5
    ##  9 FALSE  KMNPPKFSK  P35580       C3N-02287        0 aff_… 0.999 158628  1.80e-5
    ## 10 TRUE   SESNLRKAF  P55072       C3N-02287        1 aff_… 0.999 402101  2.00e-5
    ## # ℹ 11,990 more rows
    ## # ℹ 1 more variable: detected_ligands <dbl>
…
    ## Warning: `cols` is now required when using `unnest()`.
    ## ℹ Please use `cols = c(dat)`.

``` r
coordinates <- get_cutoffs(lig = XGB.results$ligand,
                           preds = map2(list(XGB.results), model.order, ~pull(.x, .y)),
                           mods =  model.order,
                           thresh = 0.1)

model.results.info
```

    ## # A tibble: 792,034 × 25
    ##    model    threshold specificity sensitivity accuracy     tn    tp    fn     fp
    ##    <chr>        <dbl>       <dbl>       <dbl>    <dbl>  <dbl> <dbl> <dbl>  <dbl>
    ##  1 aff_on… -Inf             0           1     0.000999 0       4000     0 4.00e6
    ##  2 aff_on…    0.00565       0.138       0.994 0.139    5.52e5  3977    23 3.45e6
    ##  3 aff_on…    0.00693       0.159       0.992 0.160    6.38e5  3970    30 3.36e6
    ##  4 aff_on…    0.00819       0.417       0.978 0.418    1.67e6  3914    86 2.33e6
    ##  5 aff_on…    0.0112        0.439       0.977 0.440    1.76e6  3907    93 2.24e6
    ##  6 aff_on…    0.0158        0.498       0.973 0.499    1.99e6  3891   109 2.01e6
    ##  7 aff_on…    0.0278        0.531       0.971 0.532    2.13e6  3885   115 1.87e6
    ##  8 aff_on…    0.0447        0.584       0.968 0.584    2.33e6  3871   129 1.66e6
    ##  9 aff_on…    0.0647        0.608       0.966 0.608    2.43e6  3866   134 1.57e6
    ## 10 aff_on…    0.0950        0.685       0.958 0.686    2.74e6  3831   169 1.26e6
    ## # ℹ 792,024 more rows
    ## # ℹ 16 more variables: npv <dbl>, ppv <dbl>, fdr <dbl>, fpr <dbl>, tpr <dbl>,
    ## #   tnr <dbl>, fnr <dbl>, `1-specificity` <dbl>, `1-sensitivity` <dbl>,
    ## #   `1-accuracy` <dbl>, `1-npv` <dbl>, `1-ppv` <dbl>, precision <dbl>,
    ## #   recall <dbl>, youden <dbl>, closest.topleft <dbl>
…
