…
<img src="1-protein_db_broad_files/figure-gfm/plot_RNAseq-1.png" style="display: block; margin: auto;" />

Consistency between samples looks good. Calculate mean values.

``` r
salmon.results %>% 
  unnest(salmon) %>%
  group_by(Name) %>% 
  summarise(TPM = mean(TPM)) %>% 
  transmute(ensembl_id = str_remove_all(Name, "\\.\\d+"), TPM = TPM) -> rna.expression

rna.expression
```

    ## # A tibble: 95,309 × 2
    ##    ensembl_id                                                                TPM
    ##    <chr>                                                                   <dbl>
    ##  1 ENST00000000233|ENSG00000004059|OTTHUMG00000023246|OTTHUMT0000005956… 123.   
    ##  2 ENST00000000412|ENSG00000003056|OTTHUMG00000168276|OTTHUMT0000039913…  71.8  
    ##  3 ENST00000000442|ENSG00000173153|OTTHUMG00000150641|OTTHUMT0000031930…   0.793
    ##  4 ENST00000001008|ENSG00000004478|OTTHUMG00000090429|OTTHUMT0000020686…  84.7  
    ##  5 ENST00000001146|ENSG00000003137|OTTHUMG00000129756|OTTHUMT0000025196…   0    
    ##  6 ENST00000002125|ENSG00000003509|OTTHUMG00000128468|OTTHUMT0000025026…  17.1  
    ##  7 ENST00000002165|ENSG00000001036|OTTHUMG00000015728|OTTHUMT0000004252…  38.1  
    ##  8 ENST00000002501|ENSG00000003249|OTTHUMG00000138984|OTTHUMT0000027287…   0    
    ##  9 ENST00000002596|ENSG00000002587|OTTHUMG00000090547|OTTHUMT0000020707…   0.244
    ## 10 ENST00000002829|ENSG00000001617|OTTHUMG00000156806|OTTHUMT0000034592…   0    
    ## # ℹ 95,299 more rows
…
    ## 
    ## FALSE  TRUE 
    ## 32308 63001

Read conversion table, which contains Ensemble transcript and gene IDs,
and swissprot IDs.

``` r
conversion.table <- na.omit(read_tsv("Data/HLA_peptidomics/conversion.txt"))

conversion.table
```

    ## # A tibble: 46,100 × 3
    ##    `Ensembl Gene ID` `Ensembl Transcript ID` `UniProt/SwissProt Accession`
    ##    <chr>             <chr>                   <chr>                        
    ##  1 ENSG00000261530   ENST00000566356         P35070                       
    ##  2 ENSG00000260334   ENST00000561776         P01350                       
    ##  3 ENSG00000261125   ENST00000562865         P54257                       
    ##  4 ENSG00000261125   ENST00000568643         P54257                       
    ##  5 ENSG00000261125   ENST00000568276         P54257                       
    ##  6 ENSG00000261125   ENST00000568474         P54257                       
    ##  7 ENSG00000261577   ENST00000565220         P14923                       
    ##  8 ENSG00000261577   ENST00000562805         P14923                       
    ##  9 ENSG00000261577   ENST00000565780         P14923                       
    ## 10 ENSG00000261258   ENST00000568842         Q96AY3                       
    ## # ℹ 46,090 more rows
…
Tidy up, and add peptide lengths.

``` r
broad.HLA.data %>% 
  unnest(data) %>% 
  mutate(pep_length = str_length(sequence)) %>% 
  dplyr::rename(gene.symbol = "hg19.kgXref.geneSymbol") -> broad.HLA.data

broad.HLA.data
```

    ## # A tibble: 43,599 × 4
    ##    sequence     gene.symbol allele pep_length
    ##    <chr>        <chr>       <chr>       <int>
    ##  1 AFFEGPPFKFKF WDR1        A2402          12
    ##  2 AFFGDVVLRF   CCDC134     A2402          10
    ##  3 AFHPTAQLL    AMBRA1      A2402           9
    ##  4 AFIEKHWTF    CSRP2BP     A2402           9
    ##  5 AFIQKSNLI    ZNF146      A2402           9
    ##  6 AFLDKQNQVKF  ITGA4       A2402          11
    ##  7 AFLEINRQLLF  EID2B       A2402          11
    ##  8 AFLKVSSVF    RANGAP1     A2402           9
    ##  9 AFLYNDQLIW   CCZ1        A2402          10
    ## 10 AFMVNGQKF    PRC1        A2402           9
    ## # ℹ 43,589 more rows
…
    ## Warning in full_join(., conversion.table, by = c(ensemble_id = "Ensembl Gene ID")): Detected an unexpected many-to-many relationship between `x` and `y`.
    ## ℹ Row 3 of `x` matches multiple rows in `y`.
    ## ℹ Row 36628 of `y` matches multiple rows in `x`.
    ## ℹ If a many-to-many relationship is expected, set `relationship =
    ##   "many-to-many"` to silence this warning.

``` r
conversion.table
```

    ## # A tibble: 46,369 × 4
    ##    gene.symbol ensemble_id     `Ensembl Transcript ID` UniProt/SwissProt Acces…¹
    ##    <chr>       <chr>           <chr>                   <chr>                    
    ##  1 A1BG        ENSG00000121410 ENST00000263100         P04217                   
    ##  2 A2M         ENSG00000175899 ENST00000318602         P01023                   
    ##  3 AAAS        ENSG00000094914 ENST00000209873         Q9NRG9                   
    ##  4 AAAS        ENSG00000094914 ENST00000394384         Q9NRG9                   
    ##  5 AACS        ENSG00000081760 ENST00000316519         Q86V21                   
    ##  6 AACS        ENSG00000081760 ENST00000316543         Q86V21                   
    ##  7 AACS        ENSG00000081760 ENST00000261686         Q86V21                   
    ##  8 AAGAB       ENSG00000103591 ENST00000261880         Q6PD74                   
    ##  9 AAK1        ENSG00000115977 ENST00000409085         Q2M2I8                   
    ## 10 AAK1        ENSG00000115977 ENST00000406297         Q2M2I8                   
    ## # ℹ 46,359 more rows
    ## # ℹ abbreviated name: ¹​`UniProt/SwissProt Accession`
…
    ## Warning in inner_join(., conversion.table, na_matches = "never"): Detected an unexpected many-to-many relationship between `x` and `y`.
    ## ℹ Row 2 of `x` matches multiple rows in `y`.
    ## ℹ Row 17553 of `y` matches multiple rows in `x`.
    ## ℹ If a many-to-many relationship is expected, set `relationship =
    ##   "many-to-many"` to silence this warning.

``` r
filtered.peptides
```

    ## # A tibble: 30,838 × 4
    ## # Groups:   allele [20]
    ##    sequence    swissprot_id allele ensembl_id     
    ##    <chr>       <chr>        <chr>  <chr>          
    ##  1 AFFGDVVLRF  Q9H6E4       A2402  ENSG00000100147
    ##  2 AFHPTAQLL   Q9C0C7       A2402  ENSG00000110497
    ##  3 AFIQKSNLI   Q15072       A2402  ENSG00000167635
    ##  4 AFLDKQNQVKF P13612       A2402  ENSG00000115232
    ##  5 AFLEINRQLLF Q96D98       A2402  ENSG00000176401
    ##  6 AFLKVSSVF   P46060       A2402  ENSG00000100401
    ##  7 AFLYNDQLIW  P86791       A2402  ENSG00000122674
    ##  8 AFMVNGQKF   O43663       A2402  ENSG00000198901
    ##  9 ALPAAFHTW   A8K8P3       A2402  ENSG00000198089
    ## 10 ALPEIFTEL   P41091       A2402  ENSG00000130741
    ## # ℹ 30,828 more rows
…
filtered.peptides %>% 
  filter(swissprot_id %in% IDs.in.library) %>% 
  group_by(allele) %>% 
  slice_sample(n = 500) %>% 
  mutate(ligand = TRUE) %>% 
  ungroup() -> filtered.peptides

filtered.peptides
```

    ## # A tibble: 10,000 × 5
    ##    sequence    swissprot_id allele ensembl_id      ligand
    ##    <chr>       <chr>        <chr>  <chr>           <lgl> 
    ##  1 ALWGEDAEL   Q68DX3       A0201  ENSG00000170324 TRUE  
    ##  2 SLDAAAGMLYL P16591       A0201  ENSG00000151422 TRUE  
    ##  3 LLAEIGAVTL  Q9BSV6       A0201  ENSG00000170892 TRUE  
    ##  4 RVMELFFTV   Q9C0E2       A0201  ENSG00000132953 TRUE  
    ##  5 SLVEQLTMV   O75448       A0201  ENSG00000008838 TRUE  
    ##  6 TLLPGEGPFL  Q14353       A0201  ENSG00000130005 TRUE  
    ##  7 GMDRYLIYV   P05107       A0201  ENSG00000160255 TRUE  
    ##  8 TLATDILMGV  O43143       A0201  ENSG00000109606 TRUE  
    ##  9 ALTEYTLYL   Q14139       A0201  ENSG00000110344 TRUE  
    ## 10 SLFSHSLISI  Q15386       A0201  ENSG00000009335 TRUE  
    ## # ℹ 9,990 more rows
…
