…
Tidy up, and add peptide lengths.

``` r
MS.data %>% 
  mutate(pep.length = str_length(sequence))  -> MS.data

MS.data
```

    ## # A tibble: 28,796 × 4
    ##    sequence    swissprot.id tumor pep.length
    ##    <chr>       <chr>        <chr>      <int>
    ##  1 AAAAAAAAK   P50914       3865           9
    ##  2 AAAAAAAAY   Q04726       3865           9
    ##  3 AAAAAAAQSVY P07203       3912          11
    ##  4 AAAAAAASL   Q9NVR0       3912           9
    ##  5 AAAAAQSVY   P07203       3865           9
    ##  6 AAAALPGAR   Q9H4Q3       3912           9
    ##  7 AAAALVLKA   Q9Y490       3849           9
    ##  8 AAAAPSPVL   P81877       3912           9
    ##  9 AAAAPSPVM   Q9BWG4       3912           9
    ## 10 AAAAVGPAM   Q9H1I8       3912           9
    ## # ℹ 28,786 more rows
…
<img src="1-Prep_data_files/figure-gfm/check_9mers-1.png" style="display: block; margin: auto;" />

Subsample the peptide pools to get a more workable number, 1000 should
suffice

``` r
"../2-random_forest_analyses/Data/Protein_per_Uniprot_entry_library_v3.csv.zip" %>% 
  read_tsv() %>% 
  pull(Entry) -> IDs.in.library

MS.data %>% 
  count(tumor, pep.length)
```

    ## # A tibble: 71 × 3
    ##    tumor pep.length     n
    ##    <chr>      <int> <int>
    ##  1 3830           8    29
    ##  2 3830           9  1765
    ##  3 3830          10   698
    ##  4 3830          11   501
    ##  5 3830          12   117
    ##  6 3830          13    83
    ##  7 3830          14    72
    ##  8 3830          15    62
    ##  9 3830          16    52
    ## 10 3830          17    32
    ## # ℹ 61 more rows
…
