…
``` r
XGB.results %>% 
  mutate(rank = -rank) %>% 
  mutate(detected = case_when(ligand == TRUE ~ 1,
                              TRUE ~ 0)) %>% 
  pivot_longer(cols = !c("detected","ligand", "tumor", "sequence", "swissprot.id"), 
               names_to =  "model", 
               values_to =  "score") -> XGB.results

XGB.results
```

    ## # A tibble: 20,019,460 × 7
    ##    ligand sequence    swissprot.id tumor detected model          score
    ##    <lgl>  <chr>       <chr>        <dbl>    <dbl> <chr>          <dbl>
    ##  1 TRUE   APSKPAGTT   Q14978        3830        1 aff_lib        0.964
    ##  2 TRUE   APSKPAGTT   Q14978        3830        1 aff_lib_small  0.932
    ##  3 TRUE   APSKPAGTT   Q14978        3830        1 aff_only       0.820
    ##  4 TRUE   APSKPAGTT   Q14978        3830        1 rank          -0.386
    ##  5 TRUE   APSKPAGTT   Q14978        3830        1 rankExp        0.892
    ##  6 TRUE   SPRQGNSKNVL P20393        3830        1 aff_lib        0.985
    ##  7 TRUE   SPRQGNSKNVL P20393        3830        1 aff_lib_small  0.989
    ##  8 TRUE   SPRQGNSKNVL P20393        3830        1 aff_only       0.986
    ##  9 TRUE   SPRQGNSKNVL P20393        3830        1 rank          -0.008
    ## 10 TRUE   SPRQGNSKNVL P20393        3830        1 rankExp        0.038
    ## # ℹ 20,019,450 more rows
…
Note that `cumsum()` takes an ordered dataframe.

``` r
XGB.results %>% 
  group_by(tumor, model) %>% 
  mutate(random = sample(1:n())) %>% 
  arrange(desc(score), random, .by_group = T) %>% 
    mutate(peptides = 1:n()/n(), 
         detected_ligands = cumsum(detected)/sum(detected)) %>% 
  slice_head(prop = .001) -> XGB.results
 
XGB.results
```

    ## # A tibble: 20,000 × 10
    ## # Groups:   tumor, model [20]
    ##    ligand sequence    swissprot.id tumor detected model   score random  peptides
    ##    <lgl>  <chr>       <chr>        <dbl>    <dbl> <chr>   <dbl>  <int>     <dbl>
    ##  1 FALSE  QLLDIKIRL   P13645        3830        0 aff_lib 1.00  804601   9.99e-7
    ##  2 FALSE  SPRSGPRPPL  O43516        3830        0 aff_lib 1.00  915293   2.00e-6
    ##  3 FALSE  LLFDRPMHV   P52272        3830        0 aff_lib 1.00  167891   3.00e-6
    ##  4 TRUE   KPKAPPPSL   Q9NZZ3        3830        1 aff_lib 1.00  748465   4.00e-6
    ##  5 FALSE  KIMSSPLSK   Q9UNX3        3830        0 aff_lib 1.00  423633   5.00e-6
    ##  6 FALSE  RRKDGVFLY   P62829        3830        0 aff_lib 1.00  107034   5.99e-6
    ##  7 TRUE   SLQEEIAFL   P08670        3830        1 aff_lib 1.00   92245   6.99e-6
    ##  8 FALSE  KPKETVPTL   Q8WW12        3830        0 aff_lib 1.00  409735   7.99e-6
    ##  9 TRUE   KLLEPVLLLGK P62249        3830        1 aff_lib 0.999 339675   8.99e-6
    ## 10 FALSE  NRKDIENQY   P35527        3830        0 aff_lib 0.999  70196   9.99e-6
    ## # ℹ 19,990 more rows
    ## # ℹ 1 more variable: detected_ligands <dbl>
…
tumor.order <- as.character(unique(XGB.results$tumor))

colors <- c("#6BAED6", "#756CB1", "#5F3D8C")

XGB.results %>% 
  filter(model %in% model.order) %>% 
  mutate(model = as_factor(model),
         model = fct_relevel(model, model.order),
         tumor = as_factor(tumor),
         tumor = fct_relevel(tumor, tumor.order)) -> XGB.results

XGB.results
```

    ## # A tibble: 12,000 × 10
    ## # Groups:   tumor, model [12]
    ##    ligand sequence    swissprot.id tumor detected model   score random  peptides
    ##    <lgl>  <chr>       <chr>        <fct>    <dbl> <fct>   <dbl>  <int>     <dbl>
    ##  1 FALSE  QLLDIKIRL   P13645       3830         0 aff_lib 1.00  804601   9.99e-7
    ##  2 FALSE  SPRSGPRPPL  O43516       3830         0 aff_lib 1.00  915293   2.00e-6
    ##  3 FALSE  LLFDRPMHV   P52272       3830         0 aff_lib 1.00  167891   3.00e-6
    ##  4 TRUE   KPKAPPPSL   Q9NZZ3       3830         1 aff_lib 1.00  748465   4.00e-6
    ##  5 FALSE  KIMSSPLSK   Q9UNX3       3830         0 aff_lib 1.00  423633   5.00e-6
    ##  6 FALSE  RRKDGVFLY   P62829       3830         0 aff_lib 1.00  107034   5.99e-6
    ##  7 TRUE   SLQEEIAFL   P08670       3830         1 aff_lib 1.00   92245   6.99e-6
    ##  8 FALSE  KPKETVPTL   Q8WW12       3830         0 aff_lib 1.00  409735   7.99e-6
    ##  9 TRUE   KLLEPVLLLGK P62249       3830         1 aff_lib 0.999 339675   8.99e-6
    ## 10 FALSE  NRKDIENQY   P35527       3830         0 aff_lib 0.999  70196   9.99e-6
    ## # ℹ 11,990 more rows
    ## # ℹ 1 more variable: detected_ligands <dbl>
…
    ## Warning: `cols` is now required when using `unnest()`.
    ## ℹ Please use `cols = c(dat)`.

``` r
coordinates <- get_cutoffs(lig = XGB.results$ligand,
                           preds = map2(list(XGB.results), model.order, ~pull(.x, .y)),
                           mods =  model.order,
                           thresh = 0.1)

model.results.info
```

    ## # A tibble: 789,754 × 25
    ##    model    threshold specificity sensitivity accuracy     tn    tp    fn     fp
    ##    <chr>        <dbl>       <dbl>       <dbl>    <dbl>  <dbl> <dbl> <dbl>  <dbl>
    ##  1 aff_on… -Inf             0           1     0.000999 0       4000     0 4.00e6
    ##  2 aff_on…    0.00565       0.143       1.00  0.143    5.70e5  3998     2 3.43e6
    ##  3 aff_on…    0.00693       0.164       1.00  0.165    6.56e5  3998     2 3.34e6
    ##  4 aff_on…    0.00819       0.416       0.996 0.417    1.66e6  3984    16 2.34e6
    ##  5 aff_on…    0.0112        0.438       0.996 0.439    1.75e6  3984    16 2.25e6
    ##  6 aff_on…    0.0158        0.496       0.995 0.497    1.99e6  3981    19 2.01e6
    ##  7 aff_on…    0.0278        0.530       0.995 0.530    2.12e6  3979    21 1.88e6
    ##  8 aff_on…    0.0447        0.584       0.993 0.584    2.33e6  3972    28 1.67e6
    ##  9 aff_on…    0.0647        0.609       0.992 0.609    2.44e6  3967    33 1.56e6
    ## 10 aff_on…    0.0950        0.689       0.991 0.689    2.75e6  3964    36 1.25e6
    ## # ℹ 789,744 more rows
    ## # ℹ 16 more variables: npv <dbl>, ppv <dbl>, fdr <dbl>, fpr <dbl>, tpr <dbl>,
    ## #   tnr <dbl>, fnr <dbl>, `1-specificity` <dbl>, `1-sensitivity` <dbl>,
    ## #   `1-accuracy` <dbl>, `1-npv` <dbl>, `1-ppv` <dbl>, precision <dbl>,
    ## #   recall <dbl>, youden <dbl>, closest.topleft <dbl>
…
